module blre-map-api

go 1.21.5

require (
	github.com/aws/aws-sdk-go-v2 v1.26.1
	github.com/aws/aws-sdk-go-v2/config v1.27.11
	github.com/aws/aws-sdk-go-v2/credentials v1.17.11
	github.com/aws/aws-sdk-go-v2/service/s3 v1.53.1
	github.com/chi-middleware/logrus-logger v0.3.0
	github.com/go-chi/chi/v5 v5.0.12
	github.com/sirupsen/logrus v1.9.3
	github.com/spf13/viper v1.18.2
)

require (
	github.com/aws/aws-sdk-go-v2/aws/protocol/eventstream v1.6.2 // indirect
	github.com/aws/aws-sdk-go-v2/feature/ec2/imds v1.16.1 // indirect
	github.com/aws/aws-sdk-go-v2/internal/configsources v1.3.5 // indirect
	github.com/aws/aws-sdk-go-v2/internal/endpoints/v2 v2.6.5 // indirect
	github.com/aws/aws-sdk-go-v2/internal/ini v1.8.0 // indirect
	github.com/aws/aws-sdk-go-v2/internal/v4a v1.3.5 // indirect
	github.com/aws/aws-sdk-go-v2/service/internal/accept-encoding v1.11.2 // indirect
	github.com/aws/aws-sdk-go-v2/service/internal/checksum v1.3.7 // indirect
	github.com/aws/aws-sdk-go-v2/service/internal/presigned-url v1.11.7 // indirect
	github.com/aws/aws-sdk-go-v2/service/internal/s3shared v1.17.5 // indirect
	github.com/aws/aws-sdk-go-v2/service/sso v1.20.5 // indirect
	github.com/aws/aws-sdk-go-v2/service/ssooidc v1.23.4 // indirect
	github.com/aws/aws-sdk-go-v2/service/sts v1.28.6 // indirect
	github.com/aws/smithy-go v1.20.2 // indirect
	github.com/fsnotify/fsnotify v1.7.0 // indirect
	github.com/hashicorp/hcl v1.0.0 // indirect
	github.com/magiconair/properties v1.8.7 // indirect
	github.com/mitchellh/mapstructure v1.5.0 // indirect
	github.com/pelletier/go-toml/v2 v2.1.0 // indirect
	github.com/sagikazarmark/locafero v0.4.0 // indirect
	github.com/sagikazarmark/slog-shim v0.1.0 // indirect
	github.com/sourcegraph/conc v0.3.0 // indirect
	github.com/spf13/afero v1.11.0 // indirect
	github.com/spf13/cast v1.6.0 // indirect
	github.com/spf13/pflag v1.0.5 // indirect
	github.com/subosito/gotenv v1.6.0 // indirect
	go.uber.org/atomic v1.9.0 // indirect
	go.uber.org/multierr v1.9.0 // indirect
	golang.org/x/exp v0.0.0-20230905200255-921286631fa9 // indirect
	golang.org/x/sys v0.15.0 // indirect
	golang.org/x/text v0.14.0 // indirect
	gopkg.in/ini.v1 v1.67.0 // indirect
	gopkg.in/yaml.v3 v3.0.1 // indirect
)
